Flipflops/SR-FF/SR_ff_tb.vcd
$date
	Fri Aug 06 01:12:48 2021
$end
$version
	Icarus Verilog
$end
$timescale
	1s
$end
$scope module srff_tb $end
$var wire 1 ! qbar $end
$var wire 1 " q $end
$var reg 1 # clk $end
$var reg 1 $ clr $end
$var reg 1 % preset $end
$var reg 1 & r $end
$var reg 1 ' s $end
$scope module uut $end
$var wire 1 # clk $end
$var wire 1 $ clr $end
$var wire 1 % preset $end
$var wire 1 & r $end
$var wire 1 ' s $end
$var reg 1 " q $end
$var reg 1 ! qbar $end
$upscope $end
$upscope $end
$enddefinitions $end
#20
$dumpvars
1'
0&
0%
0$
1#
1"
0!
$end
#21
0#
#22
x"
1#
1&
#23
0#
#24
1!
1#
0'
0&
#25
0#
#26
0"
1#
1&
#27
0#
#28
0!
1"
1#
1'
0&
#29
0#
#30
x"
1#
1&
#31
0#
#32
1!
1#
0'
0&
#33
0#
#34
0"
1#
1&
#35
0#
#36
0!
1"
1#
1'
0&
#37
0#
#38
x"
1#
1&
#39
0#
#40
1!
1#
0'
0&
#41
0#
#42
0"
1#
1&
#43
0#
#44
0!
1"
1#
1'
0&
#45
0#
#46
x"
1#
1&
#47
0#
#48
1!
1#
0'
0&
#49
0#
#50
0"
1#
1&
#51
0#
#52
0!
1"
1#
1'
0&
#53
0#
#54
x"
1#
1&
#55
0#
#56
1!
1#
0'
0&
#57
0#
#58
0"
1#
1&
#59
0#
#60
0!
1"
1#
1'
0&
#61
0#
#62
x"
1#
1&
#63
0#
#64
1!
1#
0'
0&
#65
0#
#66
0"
1#
1&
#67
0#
#68
0!
1"
1#
1'
0&
#69
0#
#70
x"
1#
1&
#71
0#
#72
1!
1#
0'
0&
#73
0#
#74
0"
1#
1&
#75
0#
#76
0!
1"
1#
1'
0&
#77
0#
#78
x"
1#
1&
#79
0#
#80
1!
1#
0'
0&
#81
0#
#82
0"
1#
1&
#83
0#
#84
0!
1"
1#
1'
0&
#85
0#
#86
x"
1#
1&
#87
0#
#88
1!
1#
0'
0&
#89
0#
#90
0"
1#
1&
#91
0#
#92
0!
1"
1#
1'
0&
#93
0#
#94
x"
1#
1&
#95
0#
#96
1!
1#
0'
0&
#97
0#
#98
0"
1#
1&
#99
0#
#100
0!
1"
1#
1'
0&
#101
0#
#102
x"
1#
1&
#103
0#
#104
1!
1#
0'
0&
#105
0#
#106
0"
1#
1&
#107
0#
#108
0!
1"
1#
1'
0&
#109
0#
#110
x"
1#
1&
#111
0#
#112
1!
1#
0'
0&
#113
0#
#114
0"
1#
1&
#115
0#
#116
0!
1"
1#
1'
0&
#117
0#
#118
x"
1#
1&
#119
0#
#120
1!
1#
0'
0&
#121
0#
#122
0"
1#
1&
#123
0#
#124
0!
1"
1#
1'
0&
#125
0#
#126
x"
1#
1&
#127
0#
#128
1!
1#
0'
0&
#129
0#
#130
0"
1#
1&
#131
0#
#132
0!
1"
1#
1'
0&
#133
0#
#134
x"
1#
1&
#135
0#
#136
1!
1#
0'
0&
#137
0#
#138
0"
1#
1&
#139
0#
#140
0!
1"
1#
1'
0&
#141
0#
#142
x"
1#
1&
#143
0#
#144
1!
1#
0'
0&
#145
0#
#146
0"
1#
1&
#147
0#
#148
0!
1"
1#
1'
0&
#149
0#
#150
x"
1#
1&
#151
0#
#152
1!
1#
0'
0&
#153
0#
#154
0"
1#
1&
#155
0#
#156
0!
1"
1#
1'
0&
#157
0#
#158
x"
1#
1&
#159
0#
#160
1!
1#
0'
0&
#161
0#
#162
0"
1#
1&
#163
0#
#164
0!
1"
1#
1'
0&
#165
0#
#166
x"
1#
1&
#167
0#
#168
1!
1#
0'
0&
#169
0#
#170
0"
1#
1&
#171
0#
#172
0!
1"
1#
1'
0&
#173
0#
#174
x"
1#
1&
#175
0#
#176
1!
1#
0'
0&
#177
0#
#178
0"
1#
1&
#179
0#
#180
0!
1"
1#
1'
0&
#181
0#
#182
x"
1#
1&
#183
0#
#184
1!
1#
0'
0&
#185
0#
#186
0"
1#
1&
#187
0#
#188
0!
1"
1#
1'
0&
#189
0#
#190
x"
1#
1&
#191
0#
#192
1!
1#
0'
0&
#193
0#
#194
0"
1#
1&
#195
0#
#196
0!
1"
1#
1'
0&
#197
0#
#198
x"
1#
1&
#199
0#
#200
1!
1#
0'
0&
